[
  {
    "name": "page_video_views_organic",
    "period": "day",
    "values": [
      {
        "value": 0,
        "end_time": "2018-09-20T07:00:00+0000"
      },
      {
        "value": 0,
        "end_time": "2018-09-21T07:00:00+0000"
      },
      {
        "value": 0,
        "end_time": "2018-09-22T07:00:00+0000"
      }
    ],
    "title": "Daily Total Organic Views",
    "description": "Daily: Number of times a video has been viewed due to organic reach (Total Count)",
    "id": "1209545782519940/insights/page_video_views_organic/day"
  },
  {
    "name": "page_video_views_click_to_play",
    "period": "day",
    "values": [
      {
        "value": 0,
        "end_time": "2018-09-20T07:00:00+0000"
      },
      {
        "value": 0,
        "end_time": "2018-09-21T07:00:00+0000"
      },
      {
        "value": 0,
        "end_time": "2018-09-22T07:00:00+0000"
      }
    ],
    "title": "Daily Total Clicked Views",
    "description": "Daily: Number of times a video has been viewed after the user clicked play (Total Count)",
    "id": "1209545782519940/insights/page_video_views_click_to_play/day"
  },
  {
    "name": "page_video_repeat_views",
    "period": "day",
    "values": [
      {
        "value": 0,
        "end_time": "2018-09-20T07:00:00+0000"
      },
      {
        "value": 0,
        "end_time": "2018-09-21T07:00:00+0000"
      },
      {
        "value": 0,
        "end_time": "2018-09-22T07:00:00+0000"
      }
    ],
    "title": "Daily Video Repeats",
    "description": "Daily: Number of times the video has been seen outside the first play (Total Count)",
    "id": "1209545782519940/insights/page_video_repeat_views/day"
  },
  {
    "name": "page_video_complete_views_30s_organic",
    "period": "day",
    "values": [
      {
        "value": 0,
        "end_time": "2018-09-20T07:00:00+0000"
      },
      {
        "value": 0,
        "end_time": "2018-09-21T07:00:00+0000"
      },
      {
        "value": 0,
        "end_time": "2018-09-22T07:00:00+0000"
      }
    ],
    "title": "Daily Total Organic 30-Second Views",
    "description": "Daily: Number of times the video has been viewed for at least 30s by organic reach (Total Count)",
    "id": "1209545782519940/insights/page_video_complete_views_30s_organic/day"
  },
  {
    "name": "page_video_complete_views_30s_click_to_play",
    "period": "day",
    "values": [
      {
        "value": 0,
        "end_time": "2018-09-20T07:00:00+0000"
      },
      {
        "value": 0,
        "end_time": "2018-09-21T07:00:00+0000"
      },
      {
        "value": 0,
        "end_time": "2018-09-22T07:00:00+0000"
      }
    ],
    "title": "Daily Total Clicked 30-Second Views",
    "description": "Daily: Number of times a video has been viewed for at least 30s after the user clicked play (Total Count)",
    "id": "1209545782519940/insights/page_video_complete_views_30s_click_to_play/day"
  },
  {
    "name": "page_video_complete_views_30s_repeat_views",
    "period": "day",
    "values": [
      {
        "value": 0,
        "end_time": "2018-09-20T07:00:00+0000"
      },
      {
        "value": 0,
        "end_time": "2018-09-21T07:00:00+0000"
      },
      {
        "value": 0,
        "end_time": "2018-09-22T07:00:00+0000"
      }
    ],
    "title": "Daily Total 30-Second Repeats",
    "description": "Daily: Number of times a video has been viewed for at least 30s outside the first play (Total Count)",
    "id": "1209545782519940/insights/page_video_complete_views_30s_repeat_views/day"
  },
  {
    "name": "page_video_views_10s_organic",
    "period": "day",
    "values": [
      {
        "value": 0,
        "end_time": "2018-09-20T07:00:00+0000"
      },
      {
        "value": 0,
        "end_time": "2018-09-21T07:00:00+0000"
      },
      {
        "value": 0,
        "end_time": "2018-09-22T07:00:00+0000"
      }
    ],
    "title": "Daily Total Organic 10-Second Views",
    "description": "Daily: Number of times the video has been viewed for at least 10s by organic reach (Total Count)",
    "id": "1209545782519940/insights/page_video_views_10s_organic/day"
  },
  {
    "name": "page_video_views_10s_click_to_play",
    "period": "day",
    "values": [
      {
        "value": 0,
        "end_time": "2018-09-20T07:00:00+0000"
      },
      {
        "value": 0,
        "end_time": "2018-09-21T07:00:00+0000"
      },
      {
        "value": 0,
        "end_time": "2018-09-22T07:00:00+0000"
      }
    ],
    "title": "Daily Total Clicked 10-Second Views",
    "description": "Daily: Number of times a video has been viewed for at least 10s after the user clicked play (Total Count)",
    "id": "1209545782519940/insights/page_video_views_10s_click_to_play/day"
  },
  {
    "name": "page_video_views_10s_repeat",
    "period": "day",
    "values": [
      {
        "value": 0,
        "end_time": "2018-09-20T07:00:00+0000"
      },
      {
        "value": 0,
        "end_time": "2018-09-21T07:00:00+0000"
      },
      {
        "value": 0,
        "end_time": "2018-09-22T07:00:00+0000"
      }
    ],
    "title": "Daily Total 10-Second Repeats",
    "description": "Daily: Number of times a video has been viewed for at least 10s outside the first play (Total Count)",
    "id": "1209545782519940/insights/page_video_views_10s_repeat/day"
  },
  {
    "name": "page_posts_served_impressions_organic_unique",
    "period": "day",
    "values": [
      {
        "value": 0,
        "end_time": "2018-09-20T07:00:00+0000"
      },
      {
        "value": 0,
        "end_time": "2018-09-21T07:00:00+0000"
      },
      {
        "value": 0,
        "end_time": "2018-09-22T07:00:00+0000"
      }
    ],
    "title": "Daily Served Organic Reach of Page Posts",
    "description": "Daily: The number of people who were served your Page's organic posts in their News Feed whether it entered their screen or not. Posts include statuses, photos, links, videos and more. (Unique Users)",
    "id": "1209545782519940/insights/page_posts_served_impressions_organic_unique/day"
  },
  {
    "name": "page_fans",
    "period": "lifetime",
    "values": [
      {
        "value": 0,
        "end_time": "2018-09-20T07:00:00+0000"
      },
      {
        "value": 0,
        "end_time": "2018-09-21T07:00:00+0000"
      },
      {
        "value": 0,
        "end_time": "2018-09-22T07:00:00+0000"
      }
    ],
    "title": "Lifetime Total Likes",
    "description": "Lifetime: The total number of people who have liked your Page. (Unique Users)",
    "id": "1209545782519940/insights/page_fans/lifetime"
  },
  {
    "name": "page_views_external_referrals",
    "period": "day",
    "values": [
      {
        "value": {},
        "end_time": "2018-09-20T07:00:00+0000"
      },
      {
        "value": {},
        "end_time": "2018-09-21T07:00:00+0000"
      },
      {
        "value": {},
        "end_time": "2018-09-22T07:00:00+0000"
      }
    ],
    "title": "Daily External Referrers",
    "description": "Daily: Top referring external domains sending traffic to your Page (Total Count)",
    "id": "1209545782519940/insights/page_views_external_referrals/day"
  },
  {
    "name": "page_video_views_by_paid_non_paid",
    "period": "day",
    "values": [
      {
        "value": {
          "total": 0,
          "unpaid": 0,
          "paid": 0
        },
        "end_time": "2018-09-20T07:00:00+0000"
      },
      {
        "value": {
          "total": 0,
          "unpaid": 0,
          "paid": 0
        },
        "end_time": "2018-09-21T07:00:00+0000"
      },
      {
        "value": {
          "total": 0,
          "unpaid": 0,
          "paid": 0
        },
        "end_time": "2018-09-22T07:00:00+0000"
      }
    ],
    "title": "Daily All Video Views",
    "description": "Daily: Total number of times page's videos have been viewed for more than 3 seconds, broken down by total, paid and non-paid.",
    "id": "1209545782519940/insights/page_video_views_by_paid_non_paid/day"
  },
  {
    "name": "page_video_views",
    "period": "day",
    "values": [
      {
        "value": 0,
        "end_time": "2018-09-20T07:00:00+0000"
      },
      {
        "value": 0,
        "end_time": "2018-09-21T07:00:00+0000"
      },
      {
        "value": 0,
        "end_time": "2018-09-22T07:00:00+0000"
      }
    ],
    "title": "Daily Total Video Views",
    "description": "Daily: Total number of times videos have been viewed for more than 3 seconds. (Total Count)",
    "id": "1209545782519940/insights/page_video_views/day"
  },
  {
    "name": "page_video_views_paid",
    "period": "day",
    "values": [
      {
        "value": 0,
        "end_time": "2018-09-20T07:00:00+0000"
      },
      {
        "value": 0,
        "end_time": "2018-09-21T07:00:00+0000"
      },
      {
        "value": 0,
        "end_time": "2018-09-22T07:00:00+0000"
      }
    ],
    "title": "Daily Total Promoted Views",
    "description": "Daily: Number of times a promoted video has been viewed for more than 3 seconds (Total Count)",
    "id": "1209545782519940/insights/page_video_views_paid/day"
  },
  {
    "name": "page_video_views_autoplayed",
    "period": "day",
    "values": [
      {
        "value": 0,
        "end_time": "2018-09-20T07:00:00+0000"
      },
      {
        "value": 0,
        "end_time": "2018-09-21T07:00:00+0000"
      },
      {
        "value": 0,
        "end_time": "2018-09-22T07:00:00+0000"
      }
    ],
    "title": "Daily Total Auto-Played Views",
    "description": "Daily: Number of times an auto-played video has been viewed for more than 3 seconds (Total Count)",
    "id": "1209545782519940/insights/page_video_views_autoplayed/day"
  },
  {
    "name": "page_video_views_unique",
    "period": "day",
    "values": [
      {
        "value": 0,
        "end_time": "2018-09-20T07:00:00+0000"
      },
      {
        "value": 0,
        "end_time": "2018-09-21T07:00:00+0000"
      },
      {
        "value": 0,
        "end_time": "2018-09-22T07:00:00+0000"
      }
    ],
    "title": "Daily Total Unique Video Views",
    "description": "Daily: Metric showing videos played for unique people for more than 3 seconds aggregated at the page level (Unique Users)",
    "id": "1209545782519940/insights/page_video_views_unique/day"
  },
  {
    "name": "page_video_complete_views_30s",
    "period": "day",
    "values": [
      {
        "value": 0,
        "end_time": "2018-09-20T07:00:00+0000"
      },
      {
        "value": 0,
        "end_time": "2018-09-21T07:00:00+0000"
      },
      {
        "value": 0,
        "end_time": "2018-09-22T07:00:00+0000"
      }
    ],
    "title": "Daily Total 30-Second Views",
    "description": "Daily: Total number of times page's videos was viewed for at least 30 seconds. (Total Count)",
    "id": "1209545782519940/insights/page_video_complete_views_30s/day"
  },
  {
    "name": "page_video_complete_views_30s_paid",
    "period": "day",
    "values": [
      {
        "value": 0,
        "end_time": "2018-09-20T07:00:00+0000"
      },
      {
        "value": 0,
        "end_time": "2018-09-21T07:00:00+0000"
      },
      {
        "value": 0,
        "end_time": "2018-09-22T07:00:00+0000"
      }
    ],
    "title": "Daily Paid 30-Second Views",
    "description": "Daily: Number of times page's videos was viewed for 30 seconds or viewed to the end, whichever came first, after a paid promotion. (Total Count)",
    "id": "1209545782519940/insights/page_video_complete_views_30s_paid/day"
  },
  {
    "name": "page_video_complete_views_30s_autoplayed",
    "period": "day",
    "values": [
      {
        "value": 0,
        "end_time": "2018-09-20T07:00:00+0000"
      },
      {
        "value": 0,
        "end_time": "2018-09-21T07:00:00+0000"
      },
      {
        "value": 0,
        "end_time": "2018-09-22T07:00:00+0000"
      }
    ],
    "title": "Daily Auto-Played 30-Second Views",
    "description": "Daily: Number of times your page's videos started automatically playing and people viewed it for 30 seconds or to the end, whichever came first. (Total Count)",
    "id": "1209545782519940/insights/page_video_complete_views_30s_autoplayed/day"
  },
  {
    "name": "page_video_complete_views_30s_unique",
    "period": "day",
    "values": [
      {
        "value": 0,
        "end_time": "2018-09-20T07:00:00+0000"
      },
      {
        "value": 0,
        "end_time": "2018-09-21T07:00:00+0000"
      },
      {
        "value": 0,
        "end_time": "2018-09-22T07:00:00+0000"
      }
    ],
    "title": "Daily Total Unique 30-Second Views",
    "description": "Daily: Metric showing videos played for unique people for at least 30 seconds aggregated at the page level (Unique Users)",
    "id": "1209545782519940/insights/page_video_complete_views_30s_unique/day"
  },
  {
    "name": "page_video_views_10s",
    "period": "day",
    "values": [
      {
        "value": 0,
        "end_time": "2018-09-20T07:00:00+0000"
      },
      {
        "value": 0,
        "end_time": "2018-09-21T07:00:00+0000"
      },
      {
        "value": 0,
        "end_time": "2018-09-22T07:00:00+0000"
      }
    ],
    "title": "Daily Total 10-Second Views",
    "description": "Daily: Total number of times page's videos was viewed for at least 10 seconds. (Total Count)",
    "id": "1209545782519940/insights/page_video_views_10s/day"
  },
  {
    "name": "page_video_views_10s_paid",
    "period": "day",
    "values": [
      {
        "value": 0,
        "end_time": "2018-09-20T07:00:00+0000"
      },
      {
        "value": 0,
        "end_time": "2018-09-21T07:00:00+0000"
      },
      {
        "value": 0,
        "end_time": "2018-09-22T07:00:00+0000"
      }
    ],
    "title": "Daily Paid 10-Second Views",
    "description": "Daily: Number of times page's videos was viewed for 10 seconds or viewed to the end, whichever came first, after a paid promotion. (Total Count)",
    "id": "1209545782519940/insights/page_video_views_10s_paid/day"
  },
  {
    "name": "page_video_views_10s_autoplayed",
    "period": "day",
    "values": [
      {
        "value": 0,
        "end_time": "2018-09-20T07:00:00+0000"
      },
      {
        "value": 0,
        "end_time": "2018-09-21T07:00:00+0000"
      },
      {
        "value": 0,
        "end_time": "2018-09-22T07:00:00+0000"
      }
    ],
    "title": "Daily Auto-Played 10-Second Views",
    "description": "Daily: Number of times your page's videos started automatically playing and people viewed it for 10 seconds or to the end, whichever came first. (Total Count)",
    "id": "1209545782519940/insights/page_video_views_10s_autoplayed/day"
  },
  {
    "name": "page_video_views_10s_unique",
    "period": "day",
    "values": [
      {
        "value": 0,
        "end_time": "2018-09-20T07:00:00+0000"
      },
      {
        "value": 0,
        "end_time": "2018-09-21T07:00:00+0000"
      },
      {
        "value": 0,
        "end_time": "2018-09-22T07:00:00+0000"
      }
    ],
    "title": "Daily Total Unique 10-Second Views",
    "description": "Daily: Metric showing videos played for unique people for at least 10 seconds aggregated at the page level (Unique Users)",
    "id": "1209545782519940/insights/page_video_views_10s_unique/day"
  },
  {
    "name": "page_video_view_time",
    "period": "day",
    "values": [
      {
        "value": 0,
        "end_time": "2018-09-20T07:00:00+0000"
      },
      {
        "value": 0,
        "end_time": "2018-09-21T07:00:00+0000"
      },
      {
        "value": 0,
        "end_time": "2018-09-22T07:00:00+0000"
      }
    ],
    "title": "Daily Total Video View Time (in MS)",
    "description": "Daily: The total amount of time (in milliseconds) people spent watching videos on your Page.",
    "id": "1209545782519940/insights/page_video_view_time/day"
  },
  {
    "name": "page_call_phone_clicks_by_site_logged_in_unique",
    "period": "day",
    "values": [
      {
        "value": {},
        "end_time": "2018-09-20T07:00:00+0000"
      },
      {
        "value": {},
        "end_time": "2018-09-21T07:00:00+0000"
      },
      {
        "value": {},
        "end_time": "2018-09-22T07:00:00+0000"
      }
    ],
    "title": "Daily Total phone calls click count per Page by site",
    "description": "Daily: Total phone calls click count per Page by site (Unique Users)",
    "id": "1209545782519940/insights/page_call_phone_clicks_by_site_logged_in_unique/day"
  },
  {
    "name": "page_get_directions_clicks_by_site_logged_in_unique",
    "period": "day",
    "values": [
      {
        "value": {},
        "end_time": "2018-09-20T07:00:00+0000"
      },
      {
        "value": {},
        "end_time": "2018-09-21T07:00:00+0000"
      },
      {
        "value": {},
        "end_time": "2018-09-22T07:00:00+0000"
      }
    ],
    "title": "Daily Total get direction click count per Page by site",
    "description": "Daily: Total get direction click count per Page by site (Unique Users)",
    "id": "1209545782519940/insights/page_get_directions_clicks_by_site_logged_in_unique/day"
  },
  {
    "name": "page_website_clicks_by_site_logged_in_unique",
    "period": "day",
    "values": [
      {
        "value": {},
        "end_time": "2018-09-20T07:00:00+0000"
      },
      {
        "value": {},
        "end_time": "2018-09-21T07:00:00+0000"
      },
      {
        "value": {},
        "end_time": "2018-09-22T07:00:00+0000"
      }
    ],
    "title": "Daily Total website click count per Page by site",
    "description": "Daily: Total website click count per Page by site (Unique Users)",
    "id": "1209545782519940/insights/page_website_clicks_by_site_logged_in_unique/day"
  },
  {
    "name": "page_views_by_internal_referer_logged_in_unique",
    "period": "day",
    "values": [
      {
        "value": {},
        "end_time": "2018-09-20T07:00:00+0000"
      },
      {
        "value": {},
        "end_time": "2018-09-21T07:00:00+0000"
      },
      {
        "value": {},
        "end_time": "2018-09-22T07:00:00+0000"
      }
    ],
    "title": "Daily Total logged-in views count per Page by internal referer",
    "description": "Daily: Total logged-in views count per Page by internal referer (Unique Users)",
    "id": "1209545782519940/insights/page_views_by_internal_referer_logged_in_unique/day"
  },
  {
    "name": "page_views_by_site_logged_in_unique",
    "period": "day",
    "values": [
      {
        "value": {},
        "end_time": "2018-09-20T07:00:00+0000"
      },
      {
        "value": {},
        "end_time": "2018-09-21T07:00:00+0000"
      },
      {
        "value": {},
        "end_time": "2018-09-22T07:00:00+0000"
      }
    ],
    "title": "Daily Total logged-in views count per Page by site",
    "description": "Daily: Total logged-in views count per Page by site (Unique Users)",
    "id": "1209545782519940/insights/page_views_by_site_logged_in_unique/day"
  },
  {
    "name": "page_cta_clicks_by_site_logged_in_unique",
    "period": "day",
    "values": [
      {
        "value": {},
        "end_time": "2018-09-20T07:00:00+0000"
      },
      {
        "value": {},
        "end_time": "2018-09-21T07:00:00+0000"
      },
      {
        "value": {},
        "end_time": "2018-09-22T07:00:00+0000"
      }
    ],
    "title": "Daily Total CTA click count per Page by site",
    "description": "Daily: Total CTA click count per Page by site (Unique Users)",
    "id": "1209545782519940/insights/page_cta_clicks_by_site_logged_in_unique/day"
  },
  {
    "name": "page_actions_post_reactions_total",
    "period": "day",
    "values": [
      {
        "value": {},
        "end_time": "2018-09-20T07:00:00+0000"
      },
      {
        "value": {},
        "end_time": "2018-09-21T07:00:00+0000"
      },
      {
        "value": {},
        "end_time": "2018-09-22T07:00:00+0000"
      }
    ],
    "title": "Daily: total post reactions of a page.",
    "description": "Daily: total post reactions of a page.",
    "id": "1209545782519940/insights/page_actions_post_reactions_total/day"
  },
  {
    "name": "page_content_activity_by_action_type_unique",
    "period": "day",
    "values": [
      {
        "value": {
          "page post": 1
        },
        "end_time": "2018-09-20T07:00:00+0000"
      },
      {
        "value": {},
        "end_time": "2018-09-21T07:00:00+0000"
      },
      {
        "value": {},
        "end_time": "2018-09-22T07:00:00+0000"
      }
    ],
    "title": "Daily Talking About This By Story Type",
    "description": "Daily: The number of people talking about your Page, by story type. (Unique Users)",
    "id": "1209545782519940/insights/page_content_activity_by_action_type_unique/day"
  },
  {
    "name": "page_content_activity",
    "period": "day",
    "values": [
      {
        "value": 1,
        "end_time": "2018-09-20T07:00:00+0000"
      },
      {
        "value": 0,
        "end_time": "2018-09-21T07:00:00+0000"
      },
      {
        "value": 0,
        "end_time": "2018-09-22T07:00:00+0000"
      }
    ],
    "title": "Daily Page Stories",
    "description": "Daily: The number of stories created about your Page. (Total Count)",
    "id": "1209545782519940/insights/page_content_activity/day"
  },
  {
    "name": "page_impressions",
    "period": "day",
    "values": [
      {
        "value": 6,
        "end_time": "2018-09-20T07:00:00+0000"
      },
      {
        "value": 1,
        "end_time": "2018-09-21T07:00:00+0000"
      },
      {
        "value": 0,
        "end_time": "2018-09-22T07:00:00+0000"
      }
    ],
    "title": "Daily Total Impressions",
    "description": "Daily: The number of times any content from your Page or about your Page entered a person's screen. This includes posts, check-ins, ads, social information from people who interact with your Page and more. (Total Count)",
    "id": "1209545782519940/insights/page_impressions/day"
  },
  {
    "name": "page_impressions_unique",
    "period": "day",
    "values": [
      {
        "value": 1,
        "end_time": "2018-09-20T07:00:00+0000"
      },
      {
        "value": 1,
        "end_time": "2018-09-21T07:00:00+0000"
      },
      {
        "value": 0,
        "end_time": "2018-09-22T07:00:00+0000"
      }
    ],
    "title": "Daily Total Reach",
    "description": "Daily: The number of people who had any content from your Page or about your Page enter their screen. This includes posts, check-ins, ads, social information from people who interact with your Page and more. (Unique Users)",
    "id": "1209545782519940/insights/page_impressions_unique/day"
  },
  {
    "name": "page_impressions_paid",
    "period": "day",
    "values": [
      {
        "value": 0,
        "end_time": "2018-09-20T07:00:00+0000"
      },
      {
        "value": 0,
        "end_time": "2018-09-21T07:00:00+0000"
      },
      {
        "value": 0,
        "end_time": "2018-09-22T07:00:00+0000"
      }
    ],
    "title": "Daily Paid Impressions",
    "description": "Daily: The number of times any content from your Page or about your Page entered a person's screen through paid distribution such as an ad. (Total Count)",
    "id": "1209545782519940/insights/page_impressions_paid/day"
  },
  {
    "name": "page_impressions_paid_unique",
    "period": "day",
    "values": [
      {
        "value": 0,
        "end_time": "2018-09-20T07:00:00+0000"
      },
      {
        "value": 0,
        "end_time": "2018-09-21T07:00:00+0000"
      },
      {
        "value": 0,
        "end_time": "2018-09-22T07:00:00+0000"
      }
    ],
    "title": "Daily Paid Reach",
    "description": "Daily: The number of people who had any content from your Page or about your Page enter their screen through paid distribution such as an ad. (Unique Users)",
    "id": "1209545782519940/insights/page_impressions_paid_unique/day"
  },
  {
    "name": "page_impressions_organic",
    "period": "day",
    "values": [
      {
        "value": 1,
        "end_time": "2018-09-20T07:00:00+0000"
      },
      {
        "value": 0,
        "end_time": "2018-09-21T07:00:00+0000"
      },
      {
        "value": 0,
        "end_time": "2018-09-22T07:00:00+0000"
      }
    ],
    "title": "Daily Organic impressions",
    "description": "Daily: The number of times any content from your Page or about your Page entered a person's screen through unpaid distribution. This includes posts, check-ins, social information from people who interact with your Page and more. (Total Count)",
    "id": "1209545782519940/insights/page_impressions_organic/day"
  },
  {
    "name": "page_impressions_organic_unique",
    "period": "day",
    "values": [
      {
        "value": 1,
        "end_time": "2018-09-20T07:00:00+0000"
      },
      {
        "value": 0,
        "end_time": "2018-09-21T07:00:00+0000"
      },
      {
        "value": 0,
        "end_time": "2018-09-22T07:00:00+0000"
      }
    ],
    "title": "Daily Organic Reach",
    "description": "Daily: The number of people who had any content from your Page or about your Page enter their screen through unpaid distribution. This includes posts, check-ins, social information from people who interact with your Page and more. (Unique Users)",
    "id": "1209545782519940/insights/page_impressions_organic_unique/day"
  },
  {
    "name": "page_impressions_viral",
    "period": "day",
    "values": [
      {
        "value": 0,
        "end_time": "2018-09-20T07:00:00+0000"
      },
      {
        "value": 0,
        "end_time": "2018-09-21T07:00:00+0000"
      },
      {
        "value": 0,
        "end_time": "2018-09-22T07:00:00+0000"
      }
    ],
    "title": "Daily Viral impressions",
    "description": "Daily: The number of times any content from your Page or about your Page entered a person's screen with social information attached. Social information displays when a person's friend interacted with you Page or post. This includes when someone's friend likes or follows your Page, engages with a post, shares a photo of your Page and checks into your Page. (Total Count)",
    "id": "1209545782519940/insights/page_impressions_viral/day"
  },
  {
    "name": "page_impressions_viral_unique",
    "period": "day",
    "values": [
      {
        "value": 0,
        "end_time": "2018-09-20T07:00:00+0000"
      },
      {
        "value": 0,
        "end_time": "2018-09-21T07:00:00+0000"
      },
      {
        "value": 0,
        "end_time": "2018-09-22T07:00:00+0000"
      }
    ],
    "title": "Daily Viral Reach",
    "description": "Daily:  The number of people who had any content from your Page or about your Page enter their screen through with social information attached. As a form of organic distribution, social information displays when a person's friend interacted with you Page or post. This includes when someone's friend likes or follows your Page, engages with a post, shares a photo of your Page and checks into your Page. (Unique Users)",
    "id": "1209545782519940/insights/page_impressions_viral_unique/day"
  },
  {
    "name": "page_impressions_nonviral",
    "period": "day",
    "values": [
      {
        "value": 1,
        "end_time": "2018-09-20T07:00:00+0000"
      },
      {
        "value": 0,
        "end_time": "2018-09-21T07:00:00+0000"
      },
      {
        "value": 0,
        "end_time": "2018-09-22T07:00:00+0000"
      }
    ],
    "title": "Daily Nonviral impressions",
    "description": "Daily: The number of times any content from your Page entered a person's screen. This does not include content created about your Page with social information attached. Social information displays when a person's friend interacted with you Page or post. This includes when someone's friend likes or follows your Page, engages with a post, shares a photo of your Page and checks into your Page. (Total Count)",
    "id": "1209545782519940/insights/page_impressions_nonviral/day"
  },
  {
    "name": "page_impressions_nonviral_unique",
    "period": "day",
    "values": [
      {
        "value": 1,
        "end_time": "2018-09-20T07:00:00+0000"
      },
      {
        "value": 0,
        "end_time": "2018-09-21T07:00:00+0000"
      },
      {
        "value": 0,
        "end_time": "2018-09-22T07:00:00+0000"
      }
    ],
    "title": "Daily Nonviral Reach",
    "description": "Daily: The number of people who had any content from your Page enter their screen. This does not include content created about your Page with social information attached. As a form of organic distribution, social information displays when a person's friend interacted with you Page or post. This includes when someone's friend likes or follows your Page, engages with a post, shares a photo of your Page and checks into your Page. (Unique Users)",
    "id": "1209545782519940/insights/page_impressions_nonviral_unique/day"
  },
  {
    "name": "page_engaged_users",
    "period": "day",
    "values": [
      {
        "value": 1,
        "end_time": "2018-09-20T07:00:00+0000"
      },
      {
        "value": 0,
        "end_time": "2018-09-21T07:00:00+0000"
      },
      {
        "value": 0,
        "end_time": "2018-09-22T07:00:00+0000"
      }
    ],
    "title": "Daily Page Engaged Users",
    "description": "Daily: The number of people who engaged with your Page. Engagement includes any click or story created. (Unique Users)",
    "id": "1209545782519940/insights/page_engaged_users/day"
  },
  {
    "name": "page_post_engagements",
    "period": "day",
    "values": [
      {
        "value": 0,
        "end_time": "2018-09-20T07:00:00+0000"
      },
      {
        "value": 0,
        "end_time": "2018-09-21T07:00:00+0000"
      },
      {
        "value": 0,
        "end_time": "2018-09-22T07:00:00+0000"
      }
    ],
    "title": "Daily Post Engagements",
    "description": "Daily: The number of times people have engaged with your posts through like, comments and shares and more.",
    "id": "1209545782519940/insights/page_post_engagements/day"
  },
  {
    "name": "page_consumptions",
    "period": "day",
    "values": [
      {
        "value": 0,
        "end_time": "2018-09-20T07:00:00+0000"
      },
      {
        "value": 0,
        "end_time": "2018-09-21T07:00:00+0000"
      },
      {
        "value": 0,
        "end_time": "2018-09-22T07:00:00+0000"
      }
    ],
    "title": "Daily Page Consumptions",
    "description": "Daily: The number of clicks on any of your content. Stories generated without clicks on page content (e.g., liking the page in Timeline) are not included. (Total Count)",
    "id": "1209545782519940/insights/page_consumptions/day"
  },
  {
    "name": "page_consumptions_unique",
    "period": "day",
    "values": [
      {
        "value": 0,
        "end_time": "2018-09-20T07:00:00+0000"
      },
      {
        "value": 0,
        "end_time": "2018-09-21T07:00:00+0000"
      },
      {
        "value": 0,
        "end_time": "2018-09-22T07:00:00+0000"
      }
    ],
    "title": "Daily Total Consumers",
    "description": "Daily: The number of people who clicked on any of your content. Stories that are created without clicking on Page content (ex, liking the Page from timeline) are not included. (Unique Users)",
    "id": "1209545782519940/insights/page_consumptions_unique/day"
  },
  {
    "name": "page_consumptions_by_consumption_type",
    "period": "day",
    "values": [
      {
        "value": {},
        "end_time": "2018-09-20T07:00:00+0000"
      },
      {
        "value": {},
        "end_time": "2018-09-21T07:00:00+0000"
      },
      {
        "value": {},
        "end_time": "2018-09-22T07:00:00+0000"
      }
    ],
    "title": "Daily Page Consumptions By Type",
    "description": "Daily: The number of clicks on any of your content, by type. Stories generated without clicks on page content (e.g., liking the page in Timeline) are not included. (Total Count)",
    "id": "1209545782519940/insights/page_consumptions_by_consumption_type/day"
  },
  {
    "name": "page_consumptions_by_consumption_type_unique",
    "period": "day",
    "values": [
      {
        "value": {},
        "end_time": "2018-09-20T07:00:00+0000"
      },
      {
        "value": {},
        "end_time": "2018-09-21T07:00:00+0000"
      },
      {
        "value": {},
        "end_time": "2018-09-22T07:00:00+0000"
      }
    ],
    "title": "Daily Unique Page Consumptions By Type",
    "description": "Daily: The number of of people who clicked on any of your content, by type. Stories that are created without clicking on Page content (ex, liking the Page from timeline) are not included. (Unique Users)",
    "id": "1209545782519940/insights/page_consumptions_by_consumption_type_unique/day"
  },
  {
    "name": "page_places_checkin_total_unique",
    "period": "day",
    "values": [
      {
        "value": 0,
        "end_time": "2018-09-20T07:00:00+0000"
      },
      {
        "value": 0,
        "end_time": "2018-09-21T07:00:00+0000"
      },
      {
        "value": 0,
        "end_time": "2018-09-22T07:00:00+0000"
      }
    ],
    "title": "Daily Total Check-Ins",
    "description": "Daily: Total check-ins at your Place (Unique Users)",
    "id": "1209545782519940/insights/page_places_checkin_total_unique/day"
  },
  {
    "name": "page_places_checkin_mobile",
    "period": "day",
    "values": [
      {
        "value": 0,
        "end_time": "2018-09-20T07:00:00+0000"
      },
      {
        "value": 0,
        "end_time": "2018-09-21T07:00:00+0000"
      },
      {
        "value": 0,
        "end_time": "2018-09-22T07:00:00+0000"
      }
    ],
    "title": "Daily Total Check-Ins Using Mobile Devices",
    "description": "Daily: Total check-ins at your Place using mobile devices (Total Count)",
    "id": "1209545782519940/insights/page_places_checkin_mobile/day"
  },
  {
    "name": "page_places_checkin_mobile_unique",
    "period": "day",
    "values": [
      {
        "value": 0,
        "end_time": "2018-09-20T07:00:00+0000"
      },
      {
        "value": 0,
        "end_time": "2018-09-21T07:00:00+0000"
      },
      {
        "value": 0,
        "end_time": "2018-09-22T07:00:00+0000"
      }
    ],
    "title": "Daily Total Check-Ins Using Mobile Devices",
    "description": "Daily: Total check-ins at your Place using mobile devices (Unique Users)",
    "id": "1209545782519940/insights/page_places_checkin_mobile_unique/day"
  },
  {
    "name": "page_negative_feedback",
    "period": "day",
    "values": [
      {
        "value": 0,
        "end_time": "2018-09-20T07:00:00+0000"
      },
      {
        "value": 0,
        "end_time": "2018-09-21T07:00:00+0000"
      },
      {
        "value": 0,
        "end_time": "2018-09-22T07:00:00+0000"
      }
    ],
    "title": "Daily Negative Feedback From Users",
    "description": "Daily: The number of times people have given negative feedback to your Page. (Total Count)",
    "id": "1209545782519940/insights/page_negative_feedback/day"
  },
  {
    "name": "page_negative_feedback_unique",
    "period": "day",
    "values": [
      {
        "value": 0,
        "end_time": "2018-09-20T07:00:00+0000"
      },
      {
        "value": 0,
        "end_time": "2018-09-21T07:00:00+0000"
      },
      {
        "value": 0,
        "end_time": "2018-09-22T07:00:00+0000"
      }
    ],
    "title": "Daily Negative Feedback",
    "description": "Daily: The number of people who have given negative feedback to your Page. (Unique Users)",
    "id": "1209545782519940/insights/page_negative_feedback_unique/day"
  },
  {
    "name": "page_negative_feedback_by_type",
    "period": "day",
    "values": [
      {
        "value": {},
        "end_time": "2018-09-20T07:00:00+0000"
      },
      {
        "value": {},
        "end_time": "2018-09-21T07:00:00+0000"
      },
      {
        "value": {},
        "end_time": "2018-09-22T07:00:00+0000"
      }
    ],
    "title": "Daily Negative Feedback From Users",
    "description": "Daily: The number of times people have given negative feedback to your Page, by type. (Total Count)",
    "id": "1209545782519940/insights/page_negative_feedback_by_type/day"
  },
  {
    "name": "page_negative_feedback_by_type_unique",
    "period": "day",
    "values": [
      {
        "value": {},
        "end_time": "2018-09-20T07:00:00+0000"
      },
      {
        "value": {},
        "end_time": "2018-09-21T07:00:00+0000"
      },
      {
        "value": {},
        "end_time": "2018-09-22T07:00:00+0000"
      }
    ],
    "title": "Daily Negative feedback by type",
    "description": "Daily: The number of people who have given negative feedback to your Page, by type. (Unique Users)",
    "id": "1209545782519940/insights/page_negative_feedback_by_type_unique/day"
  },
  {
    "name": "page_positive_feedback_by_type",
    "period": "day",
    "values": [
      {
        "value": {
          "other": 1
        },
        "end_time": "2018-09-20T07:00:00+0000"
      },
      {
        "value": {},
        "end_time": "2018-09-21T07:00:00+0000"
      },
      {
        "value": {},
        "end_time": "2018-09-22T07:00:00+0000"
      }
    ],
    "title": "Daily Positive Feedback From Users",
    "description": "Daily: The number of times people have given positive feedback to your Page, by type. (Total Count)",
    "id": "1209545782519940/insights/page_positive_feedback_by_type/day"
  },
  {
    "name": "page_positive_feedback_by_type_unique",
    "period": "day",
    "values": [
      {
        "value": {
          "other": 1
        },
        "end_time": "2018-09-20T07:00:00+0000"
      },
      {
        "value": {},
        "end_time": "2018-09-21T07:00:00+0000"
      },
      {
        "value": {},
        "end_time": "2018-09-22T07:00:00+0000"
      }
    ],
    "title": "Daily Positive Feedback From Users",
    "description": "Daily: The number of times people have given positive feedback to your Page, by type. (Unique Users)",
    "id": "1209545782519940/insights/page_positive_feedback_by_type_unique/day"
  },
  {
    "name": "page_fans_online",
    "period": "day",
    "values": [
      {
        "value": {},
        "end_time": "2018-09-20T07:00:00+0000"
      },
      {
        "value": {},
        "end_time": "2018-09-21T07:00:00+0000"
      },
      {
        "value": {},
        "end_time": "2018-09-22T07:00:00+0000"
      }
    ],
    "title": "Daily Liked and Online",
    "description": "Daily: The number of people who liked your Page and when they are online in PST/PDT (Unique Users)",
    "id": "1209545782519940/insights/page_fans_online/day"
  },
  {
    "name": "page_fan_adds_by_paid_non_paid_unique",
    "period": "day",
    "values": [
      {
        "value": {
          "total": 0,
          "paid": 0,
          "unpaid": 0
        },
        "end_time": "2018-09-20T07:00:00+0000"
      },
      {
        "value": {
          "total": 0,
          "paid": 0,
          "unpaid": 0
        },
        "end_time": "2018-09-21T07:00:00+0000"
      },
      {
        "value": {
          "total": 0,
          "paid": 0,
          "unpaid": 0
        },
        "end_time": "2018-09-22T07:00:00+0000"
      }
    ],
    "title": "Daily New likes by paid and non-paid",
    "description": "Daily: The number of new people who have liked your page broken down by paid and non-paid. (Unique Users)",
    "id": "1209545782519940/insights/page_fan_adds_by_paid_non_paid_unique/day"
  },
  {
    "name": "page_actions_post_reactions_like_total",
    "period": "day",
    "values": [
      {
        "value": 0,
        "end_time": "2018-09-20T07:00:00+0000"
      },
      {
        "value": 0,
        "end_time": "2018-09-21T07:00:00+0000"
      },
      {
        "value": 0,
        "end_time": "2018-09-22T07:00:00+0000"
      }
    ],
    "title": "Daily total post like reactions of a page.",
    "description": "Daily: total post like reactions of a page.",
    "id": "1209545782519940/insights/page_actions_post_reactions_like_total/day"
  },
  {
    "name": "page_actions_post_reactions_love_total",
    "period": "day",
    "values": [
      {
        "value": 0,
        "end_time": "2018-09-20T07:00:00+0000"
      },
      {
        "value": 0,
        "end_time": "2018-09-21T07:00:00+0000"
      },
      {
        "value": 0,
        "end_time": "2018-09-22T07:00:00+0000"
      }
    ],
    "title": "Daily total post love reactions of a page.",
    "description": "Daily: total post love reactions of a page.",
    "id": "1209545782519940/insights/page_actions_post_reactions_love_total/day"
  },
  {
    "name": "page_actions_post_reactions_wow_total",
    "period": "day",
    "values": [
      {
        "value": 0,
        "end_time": "2018-09-20T07:00:00+0000"
      },
      {
        "value": 0,
        "end_time": "2018-09-21T07:00:00+0000"
      },
      {
        "value": 0,
        "end_time": "2018-09-22T07:00:00+0000"
      }
    ],
    "title": "Daily total post wow reactions of a page.",
    "description": "Daily: total post wow reactions of a page.",
    "id": "1209545782519940/insights/page_actions_post_reactions_wow_total/day"
  },
  {
    "name": "page_actions_post_reactions_haha_total",
    "period": "day",
    "values": [
      {
        "value": 0,
        "end_time": "2018-09-20T07:00:00+0000"
      },
      {
        "value": 0,
        "end_time": "2018-09-21T07:00:00+0000"
      },
      {
        "value": 0,
        "end_time": "2018-09-22T07:00:00+0000"
      }
    ],
    "title": "Daily total post haha reactions of a page.",
    "description": "Daily: total post haha reactions of a page.",
    "id": "1209545782519940/insights/page_actions_post_reactions_haha_total/day"
  },
  {
    "name": "page_actions_post_reactions_sorry_total",
    "period": "day",
    "values": [
      {
        "value": 0,
        "end_time": "2018-09-20T07:00:00+0000"
      },
      {
        "value": 0,
        "end_time": "2018-09-21T07:00:00+0000"
      },
      {
        "value": 0,
        "end_time": "2018-09-22T07:00:00+0000"
      }
    ],
    "title": "Daily total post sorry reactions of a page.",
    "description": "Daily: total post sorry reactions of a page.",
    "id": "1209545782519940/insights/page_actions_post_reactions_sorry_total/day"
  },
  {
    "name": "page_actions_post_reactions_anger_total",
    "period": "day",
    "values": [
      {
        "value": 0,
        "end_time": "2018-09-20T07:00:00+0000"
      },
      {
        "value": 0,
        "end_time": "2018-09-21T07:00:00+0000"
      },
      {
        "value": 0,
        "end_time": "2018-09-22T07:00:00+0000"
      }
    ],
    "title": "Daily total post anger reactions of a page.",
    "description": "Daily: total post anger reactions of a page.",
    "id": "1209545782519940/insights/page_actions_post_reactions_anger_total/day"
  },
  {
    "name": "page_total_actions",
    "period": "day",
    "values": [
      {
        "value": 0,
        "end_time": "2018-09-20T07:00:00+0000"
      },
      {
        "value": 0,
        "end_time": "2018-09-21T07:00:00+0000"
      },
      {
        "value": 0,
        "end_time": "2018-09-22T07:00:00+0000"
      }
    ],
    "title": "Daily Total: total action count per Page",
    "description": "Daily: The number of clicks on your Page's contact info and call-to-action button.",
    "id": "1209545782519940/insights/page_total_actions/day"
  },
  {
    "name": "page_cta_clicks_logged_in_total",
    "period": "day",
    "values": [
      {
        "value": {},
        "end_time": "2018-09-20T07:00:00+0000"
      },
      {
        "value": {},
        "end_time": "2018-09-21T07:00:00+0000"
      },
      {
        "value": {},
        "end_time": "2018-09-22T07:00:00+0000"
      }
    ],
    "title": "Daily Total CTA click count per Page",
    "description": "Daily: Total CTA click count per Page",
    "id": "1209545782519940/insights/page_cta_clicks_logged_in_total/day"
  },
  {
    "name": "page_cta_clicks_logged_in_unique",
    "period": "day",
    "values": [
      {
        "value": {},
        "end_time": "2018-09-20T07:00:00+0000"
      },
      {
        "value": {},
        "end_time": "2018-09-21T07:00:00+0000"
      },
      {
        "value": {},
        "end_time": "2018-09-22T07:00:00+0000"
      }
    ],
    "title": "Daily Total CTA click count per Page",
    "description": "Daily: Total CTA click count per Page (Unique Users)",
    "id": "1209545782519940/insights/page_cta_clicks_logged_in_unique/day"
  },
  {
    "name": "page_call_phone_clicks_logged_in_unique",
    "period": "day",
    "values": [
      {
        "value": 0,
        "end_time": "2018-09-20T07:00:00+0000"
      },
      {
        "value": 0,
        "end_time": "2018-09-21T07:00:00+0000"
      },
      {
        "value": 0,
        "end_time": "2018-09-22T07:00:00+0000"
      }
    ],
    "title": "Daily Total phone calls click count per Page",
    "description": "Daily: Total phone calls click count per Page (Unique Users)",
    "id": "1209545782519940/insights/page_call_phone_clicks_logged_in_unique/day"
  },
  {
    "name": "page_get_directions_clicks_logged_in_unique",
    "period": "day",
    "values": [
      {
        "value": 0,
        "end_time": "2018-09-20T07:00:00+0000"
      },
      {
        "value": 0,
        "end_time": "2018-09-21T07:00:00+0000"
      },
      {
        "value": 0,
        "end_time": "2018-09-22T07:00:00+0000"
      }
    ],
    "title": "Daily Total get direction click count per Page",
    "description": "Daily: Total get direction click count per Page  (Unique Users)",
    "id": "1209545782519940/insights/page_get_directions_clicks_logged_in_unique/day"
  },
  {
    "name": "page_website_clicks_logged_in_unique",
    "period": "day",
    "values": [
      {
        "value": 0,
        "end_time": "2018-09-20T07:00:00+0000"
      },
      {
        "value": 0,
        "end_time": "2018-09-21T07:00:00+0000"
      },
      {
        "value": 0,
        "end_time": "2018-09-22T07:00:00+0000"
      }
    ],
    "title": "Daily Total website click count per Page",
    "description": "Daily: Total website click count per Page (Unique Users)",
    "id": "1209545782519940/insights/page_website_clicks_logged_in_unique/day"
  },
  {
    "name": "page_fan_adds",
    "period": "day",
    "values": [
      {
        "value": 0,
        "end_time": "2018-09-20T07:00:00+0000"
      },
      {
        "value": 0,
        "end_time": "2018-09-21T07:00:00+0000"
      },
      {
        "value": 0,
        "end_time": "2018-09-22T07:00:00+0000"
      }
    ],
    "title": "Daily New Likes",
    "description": "Daily: The number of new people who have liked your Page (Total Count)",
    "id": "1209545782519940/insights/page_fan_adds/day"
  },
  {
    "name": "page_fan_adds_unique",
    "period": "day",
    "values": [
      {
        "value": 0,
        "end_time": "2018-09-20T07:00:00+0000"
      },
      {
        "value": 0,
        "end_time": "2018-09-21T07:00:00+0000"
      },
      {
        "value": 0,
        "end_time": "2018-09-22T07:00:00+0000"
      }
    ],
    "title": "Daily New Likes",
    "description": "Daily: The number of new people who have liked your Page (Unique Users)",
    "id": "1209545782519940/insights/page_fan_adds_unique/day"
  },
  {
    "name": "page_fans_by_like_source",
    "period": "day",
    "values": [
      {
        "value": {},
        "end_time": "2018-09-20T07:00:00+0000"
      },
      {
        "value": {},
        "end_time": "2018-09-21T07:00:00+0000"
      },
      {
        "value": {},
        "end_time": "2018-09-22T07:00:00+0000"
      }
    ],
    "title": "Daily Like Sources",
    "description": "Daily: This is a breakdown of the number of Page likes from the most common places where people can like your Page. (Total Count)",
    "id": "1209545782519940/insights/page_fans_by_like_source/day"
  },
  {
    "name": "page_fans_by_like_source_unique",
    "period": "day",
    "values": [
      {
        "value": {},
        "end_time": "2018-09-20T07:00:00+0000"
      },
      {
        "value": {},
        "end_time": "2018-09-21T07:00:00+0000"
      },
      {
        "value": {},
        "end_time": "2018-09-22T07:00:00+0000"
      }
    ],
    "title": "Daily Like Sources",
    "description": "Daily: The number of people who liked your Page, broken down by the most common places where people can like your Page. (Unique Users)",
    "id": "1209545782519940/insights/page_fans_by_like_source_unique/day"
  },
  {
    "name": "page_fan_removes",
    "period": "day",
    "values": [
      {
        "value": 0,
        "end_time": "2018-09-20T07:00:00+0000"
      },
      {
        "value": 0,
        "end_time": "2018-09-21T07:00:00+0000"
      },
      {
        "value": 0,
        "end_time": "2018-09-22T07:00:00+0000"
      }
    ],
    "title": "Daily Unlikes",
    "description": "Daily: The number of Unlikes of your Page (Total Count)",
    "id": "1209545782519940/insights/page_fan_removes/day"
  },
  {
    "name": "page_fan_removes_unique",
    "period": "day",
    "values": [
      {
        "value": 0,
        "end_time": "2018-09-20T07:00:00+0000"
      },
      {
        "value": 0,
        "end_time": "2018-09-21T07:00:00+0000"
      },
      {
        "value": 0,
        "end_time": "2018-09-22T07:00:00+0000"
      }
    ],
    "title": "Daily Unlikes",
    "description": "Daily: The number of Unlikes of your Page (Unique Users)",
    "id": "1209545782519940/insights/page_fan_removes_unique/day"
  },
  {
    "name": "page_fans_by_unlike_source_unique",
    "period": "day",
    "values": [
      {
        "value": {},
        "end_time": "2018-09-20T07:00:00+0000"
      },
      {
        "value": {},
        "end_time": "2018-09-21T07:00:00+0000"
      },
      {
        "value": {},
        "end_time": "2018-09-22T07:00:00+0000"
      }
    ],
    "title": "Daily Unlike Sources",
    "description": "Daily: The number of people who unliked your Page, broken down by the most common places where people can unlike your Page. (Unique Users)",
    "id": "1209545782519940/insights/page_fans_by_unlike_source_unique/day"
  },
  {
    "name": "page_views_total",
    "period": "day",
    "values": [
      {
        "value": 0,
        "end_time": "2018-09-20T07:00:00+0000"
      },
      {
        "value": 0,
        "end_time": "2018-09-21T07:00:00+0000"
      },
      {
        "value": 0,
        "end_time": "2018-09-22T07:00:00+0000"
      }
    ],
    "title": "Daily Total views count per Page",
    "description": "Daily: Total views count per Page",
    "id": "1209545782519940/insights/page_views_total/day"
  },
  {
    "name": "page_views_logged_in_total",
    "period": "day",
    "values": [
      {
        "value": 0,
        "end_time": "2018-09-20T07:00:00+0000"
      },
      {
        "value": 0,
        "end_time": "2018-09-21T07:00:00+0000"
      },
      {
        "value": 0,
        "end_time": "2018-09-22T07:00:00+0000"
      }
    ],
    "title": "Daily Total logged-in views count per Page",
    "description": "Daily: Total logged-in views count per Page",
    "id": "1209545782519940/insights/page_views_logged_in_total/day"
  },
  {
    "name": "page_views_logged_in_unique",
    "period": "day",
    "values": [
      {
        "value": 0,
        "end_time": "2018-09-20T07:00:00+0000"
      },
      {
        "value": 0,
        "end_time": "2018-09-21T07:00:00+0000"
      },
      {
        "value": 0,
        "end_time": "2018-09-22T07:00:00+0000"
      }
    ],
    "title": "Daily Total logged-in views count per Page",
    "description": "Daily: Total logged-in views count per Page (Unique Users)",
    "id": "1209545782519940/insights/page_views_logged_in_unique/day"
  },
  {
    "name": "page_views_by_profile_tab_total",
    "period": "day",
    "values": [
      {
        "value": {},
        "end_time": "2018-09-20T07:00:00+0000"
      },
      {
        "value": {},
        "end_time": "2018-09-21T07:00:00+0000"
      },
      {
        "value": {},
        "end_time": "2018-09-22T07:00:00+0000"
      }
    ],
    "title": "Daily Total views count per Page by profile tab",
    "description": "Daily: Total views count per Page by profile tab",
    "id": "1209545782519940/insights/page_views_by_profile_tab_total/day"
  },
  {
    "name": "page_views_by_profile_tab_logged_in_unique",
    "period": "day",
    "values": [
      {
        "value": {},
        "end_time": "2018-09-20T07:00:00+0000"
      },
      {
        "value": {},
        "end_time": "2018-09-21T07:00:00+0000"
      },
      {
        "value": {},
        "end_time": "2018-09-22T07:00:00+0000"
      }
    ],
    "title": "Daily Total logged-in views count per Page by profile tab",
    "description": "Daily: Total logged-in views count per Page by profile tab (Unique Users)",
    "id": "1209545782519940/insights/page_views_by_profile_tab_logged_in_unique/day"
  },
  {
    "name": "page_posts_impressions",
    "period": "day",
    "values": [
      {
        "value": 1,
        "end_time": "2018-09-20T07:00:00+0000"
      },
      {
        "value": 0,
        "end_time": "2018-09-21T07:00:00+0000"
      },
      {
        "value": 0,
        "end_time": "2018-09-22T07:00:00+0000"
      }
    ],
    "title": "Daily Total Impressions of your posts",
    "description": "Daily: The number of times your Page's posts entered a person's screen. Posts include statuses, photos, links, videos and more. (Total Count)",
    "id": "1209545782519940/insights/page_posts_impressions/day"
  },
  {
    "name": "page_posts_impressions_unique",
    "period": "day",
    "values": [
      {
        "value": 1,
        "end_time": "2018-09-20T07:00:00+0000"
      },
      {
        "value": 0,
        "end_time": "2018-09-21T07:00:00+0000"
      },
      {
        "value": 0,
        "end_time": "2018-09-22T07:00:00+0000"
      }
    ],
    "title": "Daily Reach Of Page Posts",
    "description": "Daily: The number of people who had any of your Page's posts enter their screen. Posts include statuses, photos, links, videos and more. (Unique Users)",
    "id": "1209545782519940/insights/page_posts_impressions_unique/day"
  },
  {
    "name": "page_posts_impressions_paid",
    "period": "day",
    "values": [
      {
        "value": 0,
        "end_time": "2018-09-20T07:00:00+0000"
      },
      {
        "value": 0,
        "end_time": "2018-09-21T07:00:00+0000"
      },
      {
        "value": 0,
        "end_time": "2018-09-22T07:00:00+0000"
      }
    ],
    "title": "Daily Paid impressions of your posts",
    "description": "Daily: The number of times your Page's posts entered a person's screen through paid distribution such as an ad. (Total Count)",
    "id": "1209545782519940/insights/page_posts_impressions_paid/day"
  },
  {
    "name": "page_posts_impressions_paid_unique",
    "period": "day",
    "values": [
      {
        "value": 0,
        "end_time": "2018-09-20T07:00:00+0000"
      },
      {
        "value": 0,
        "end_time": "2018-09-21T07:00:00+0000"
      },
      {
        "value": 0,
        "end_time": "2018-09-22T07:00:00+0000"
      }
    ],
    "title": "Daily Paid Reach of Page posts",
    "description": "Daily: The number of people who had any of your Page's posts enter their screen through paid distribution such as an ad. (Unique Users)",
    "id": "1209545782519940/insights/page_posts_impressions_paid_unique/day"
  },
  {
    "name": "page_posts_impressions_organic",
    "period": "day",
    "values": [
      {
        "value": 1,
        "end_time": "2018-09-20T07:00:00+0000"
      },
      {
        "value": 0,
        "end_time": "2018-09-21T07:00:00+0000"
      },
      {
        "value": 0,
        "end_time": "2018-09-22T07:00:00+0000"
      }
    ],
    "title": "Daily Organic impressions of your posts",
    "description": "Daily: The number of times your Page's posts entered a person's screen through unpaid distribution. (Total Count)",
    "id": "1209545782519940/insights/page_posts_impressions_organic/day"
  },
  {
    "name": "page_posts_impressions_organic_unique",
    "period": "day",
    "values": [
      {
        "value": 1,
        "end_time": "2018-09-20T07:00:00+0000"
      },
      {
        "value": 0,
        "end_time": "2018-09-21T07:00:00+0000"
      },
      {
        "value": 0,
        "end_time": "2018-09-22T07:00:00+0000"
      }
    ],
    "title": "Daily Organic Reach of Page posts",
    "description": "Daily: The number of people who had any of your Page's posts enter their screen through unpaid distribution. (Unique Users)",
    "id": "1209545782519940/insights/page_posts_impressions_organic_unique/day"
  },
  {
    "name": "page_posts_impressions_viral",
    "period": "day",
    "values": [
      {
        "value": 0,
        "end_time": "2018-09-20T07:00:00+0000"
      },
      {
        "value": 0,
        "end_time": "2018-09-21T07:00:00+0000"
      },
      {
        "value": 0,
        "end_time": "2018-09-22T07:00:00+0000"
      }
    ],
    "title": "Daily Viral Impressions Of Your Posts",
    "description": "Daily: The number of times your Page's posts entered a person's screen with social information attached. Social information displays when a person's friend interacted with you Page or post. This includes when someone's friend likes or follows your Page, engages with a post, shares a photo of your Page and checks into your Page. (Total Count)",
    "id": "1209545782519940/insights/page_posts_impressions_viral/day"
  },
  {
    "name": "page_posts_impressions_viral_unique",
    "period": "day",
    "values": [
      {
        "value": 0,
        "end_time": "2018-09-20T07:00:00+0000"
      },
      {
        "value": 0,
        "end_time": "2018-09-21T07:00:00+0000"
      },
      {
        "value": 0,
        "end_time": "2018-09-22T07:00:00+0000"
      }
    ],
    "title": "Daily Viral Reach Of Page Posts",
    "description": "Daily: The number of people who had any of your Page's posts enter their screen with social information attached. As a form of organic distribution, social information displays when a person's friend interacted with you Page or post. This includes when someone's friend likes or follows your Page, engages with a post, shares a photo of your Page and checks into your Page. (Unique Users)",
    "id": "1209545782519940/insights/page_posts_impressions_viral_unique/day"
  },
  {
    "name": "page_posts_impressions_nonviral",
    "period": "day",
    "values": [
      {
        "value": 1,
        "end_time": "2018-09-20T07:00:00+0000"
      },
      {
        "value": 0,
        "end_time": "2018-09-21T07:00:00+0000"
      },
      {
        "value": 0,
        "end_time": "2018-09-22T07:00:00+0000"
      }
    ],
    "title": "Daily Nonviral Impressions Of Your Posts",
    "description": "Daily: The number of times your Page's posts entered a person's screen. This does not include content created about your Page with social information attached. Social information displays when a person's friend interacted with you Page or post. This includes when someone's friend likes or follows your Page, engages with a post, shares a photo of your Page and checks into your Page. (Total Count)",
    "id": "1209545782519940/insights/page_posts_impressions_nonviral/day"
  },
  {
    "name": "page_posts_impressions_nonviral_unique",
    "period": "day",
    "values": [
      {
        "value": 1,
        "end_time": "2018-09-20T07:00:00+0000"
      },
      {
        "value": 0,
        "end_time": "2018-09-21T07:00:00+0000"
      },
      {
        "value": 0,
        "end_time": "2018-09-22T07:00:00+0000"
      }
    ],
    "title": "Daily Nonviral reach of Page Posts",
    "description": "Daily: The number of people who had any posts by your Page enter their screen. This does not include content created about your Page with social information attached. As a form of organic distribution, social information displays when a person's friend interacted with you Page or post. This includes when someone's friend likes or follows your Page, engages with a post, shares a photo of your Page and checks into your Page. (Unique Users)",
    "id": "1209545782519940/insights/page_posts_impressions_nonviral_unique/day"
  },
  {
    "name": "page_posts_impressions_frequency_distribution",
    "period": "day",
    "values": [
      {
        "value": {
          "1": 1
        },
        "end_time": "2018-09-20T07:00:00+0000"
      },
      {
        "value": {},
        "end_time": "2018-09-21T07:00:00+0000"
      },
      {
        "value": {},
        "end_time": "2018-09-22T07:00:00+0000"
      }
    ],
    "title": "Daily Page Posts Frequency Distribution",
    "description": "Daily: The number of people who saw your Page posts, broken down by how many times people saw your posts. (Unique Users)",
    "id": "1209545782519940/insights/page_posts_impressions_frequency_distribution/day"
  }
]
